Presim/Reduction/redD_46to23_tb.vcd
$date
    Jul 17, 2025  20:50:19
$end
$version
    TOOL:	xmsim(64)	24.03-s011
$end
$timescale
    1 ps
$end

$scope module redD_46to23_tb $end

$scope module dut $end
$var wire     46 !    in [45:0] $end
$var wire     26 "    A [25:0] $end
$var wire     26 #    A_minus_q [25:0] $end
$var wire     26 $    A_minus_2q [25:0] $end
$var wire     26 %    A_plus_q [25:0] $end
$var reg      23 &    out [22:0] $end
$var wire      3 '    a4 [2:0] $end
$var wire     10 (    a3 [9:0] $end
$var wire     10 )    a2 [9:0] $end
$var wire     10 *    a1 [9:0] $end
$var wire     13 +    a0 [12:0] $end
$var wire     25 ,    t1 [24:0] $end
$var wire     21 -    t2 [20:0] $end
$var wire     14 .    t3 [13:0] $end
$var wire     23 /    t4 [22:0] $end
$var wire     26 0    signed_t1 [25:0] $end
$var wire     22 1    signed_t2 [21:0] $end
$var wire     24 2    signed_t4 [23:0] $end
$upscope $end

$upscope $end

$enddefinitions $end
$dumpvars
b1001011000111100011010000001011000100011110111 !
b10110100011011111111000 "
b11110110100101011111110111 #
b11010110100111011111110110 $
b110110100001011111111001 %
b10110100011011111111000 &
b100 '
b1011000111 (
b1000110100 )
b101100 *
b100011110111 +
b101001010110000000000000 ,
b10110010110000000000 -
b1111111000 .
b10000000000000000000000 /
b101001010110000000000000 0
b10110010110000000000 1
b10000000000000000000000 2
$end
#10000
b11111111101111011010101 !
b0 '
b0 (
b0 )
b1111111110 *
b1111011010101 +
b11111111100000000000000 ,
b0 -
b1111011010101 .
b0 /
b0 2
b10110100101001011010101 "
b0 1
b11111111100000000000000 0
b10110100101001011010101 &
b11110110100111001011010100 #
b110110100011001011010110 %
b11111111101111011010101 "
b11111111101111011010101 &
b11111111111111111011010100 #
b111111111011111011010110 %
b11010110101001001011010011 $
b11100000000001111011010011 $
#20000
b11111111101111011010110 !
b1111011010110 +
b1111011010110 .
b11111111101111011010110 "
b11111111101111011010110 &
b11111111111111111011010101 #
b111111111011111011010111 %
b11100000000001111011010100 $
#30000
b11111111101111011010111 !
b1111011010111 +
b1111011010111 .
b11111111101111011010111 "
b11111111101111011010111 &
b11111111111111111011010110 #
b111111111011111011011000 %
b11100000000001111011010101 $
#40000
b11111111101111011011000 !
b1111011011000 +
b1111011011000 .
b11111111101111011011000 "
b11111111101111011011000 &
b11111111111111111011010111 #
b111111111011111011011001 %
b11100000000001111011010110 $
#50000
b11111111101111011011001 !
b1111011011001 +
b1111011011001 .
b11111111101111011011001 "
b11111111101111011011001 &
b11111111111111111011011000 #
b111111111011111011011010 %
b11100000000001111011010111 $
#60000
b11111111101111011011010 !
b1111011011010 +
b1111011011010 .
b11111111101111011011010 "
b11111111101111011011010 &
b11111111111111111011011001 #
b111111111011111011011011 %
b11100000000001111011011000 $
#70000
b11111111101111011011011 !
b1111011011011 +
b1111011011011 .
b11111111101111011011011 "
b11111111101111011011011 &
b11111111111111111011011010 #
b111111111011111011011100 %
b11100000000001111011011001 $
#80000
b11111111101111011011100 !
b1111011011100 +
b1111011011100 .
b11111111101111011011100 "
b11111111101111011011100 &
b11111111111111111011011011 #
b111111111011111011011101 %
b11100000000001111011011010 $
#90000
b11111111101111011011101 !
b1111011011101 +
b1111011011101 .
b11111111101111011011101 "
b11111111101111011011101 &
b11111111111111111011011100 #
b111111111011111011011110 %
b11100000000001111011011011 $
#100000
b11111111101111011011110 !
b1111011011110 +
b1111011011110 .
b11111111101111011011110 "
b11111111101111011011110 &
b11111111111111111011011101 #
b111111111011111011011111 %
b11100000000001111011011100 $
#110000
b11111111101111011011111 !
b1111011011111 +
b1111011011111 .
b11111111101111011011111 "
b11111111101111011011111 &
b11111111111111111011011110 #
b111111111011111011100000 %
b11100000000001111011011101 $
#120000
b11111111101111011100000 !
b1111011100000 +
b1111011100000 .
b11111111101111011100000 "
b11111111101111011100000 &
b11111111111111111011011111 #
b111111111011111011100001 %
b11100000000001111011011110 $
#130000
b11111111101111011100001 !
b1111011100001 +
b1111011100001 .
b11111111101111011100001 "
b11111111101111011100001 &
b11111111111111111011100000 #
b111111111011111011100010 %
b11100000000001111011011111 $
#140000
b11111111101111011100010 !
b1111011100010 +
b1111011100010 .
b11111111101111011100010 "
b11111111101111011100010 &
b11111111111111111011100001 #
b111111111011111011100011 %
b11100000000001111011100000 $
#150000
b11111111101111011100011 !
b1111011100011 +
b1111011100011 .
b11111111101111011100011 "
b11111111101111011100011 &
b11111111111111111011100010 #
b111111111011111011100100 %
b11100000000001111011100001 $
#160000
b11111111101111011100100 !
b1111011100100 +
b1111011100100 .
b11111111101111011100100 "
b11111111101111011100100 &
b11111111111111111011100011 #
b111111111011111011100101 %
b11100000000001111011100010 $
#170000
b11111111101111011100101 !
b1111011100101 +
b1111011100101 .
b11111111101111011100101 "
b11111111101111011100101 &
b11111111111111111011100100 #
b111111111011111011100110 %
b11100000000001111011100011 $
#180000
b11111111101111011100110 !
b1111011100110 +
b1111011100110 .
b11111111101111011100110 "
b11111111101111011100110 &
b11111111111111111011100101 #
b111111111011111011100111 %
b11100000000001111011100100 $
#190000
b11111111101111011100111 !
b1111011100111 +
b1111011100111 .
b11111111101111011100111 "
b11111111101111011100111 &
b11111111111111111011100110 #
b111111111011111011101000 %
b11100000000001111011100101 $
#200000
b11111111101111011101000 !
b1111011101000 +
b1111011101000 .
b11111111101111011101000 "
b11111111101111011101000 &
b11111111111111111011100111 #
b111111111011111011101001 %
b11100000000001111011100110 $
#210000
b11111111101111011101001 !
b1111011101001 +
b1111011101001 .
b11111111101111011101001 "
b11111111101111011101001 &
b11111111111111111011101000 #
b111111111011111011101010 %
b11100000000001111011100111 $
#220000
b11111111101111011101010 !
b1111011101010 +
b1111011101010 .
b11111111101111011101010 "
b11111111101111011101010 &
b11111111111111111011101001 #
b111111111011111011101011 %
b11100000000001111011101000 $
#230000
b11111111101111011101011 !
b1111011101011 +
b1111011101011 .
b11111111101111011101011 "
b11111111101111011101011 &
b11111111111111111011101010 #
b111111111011111011101100 %
b11100000000001111011101001 $
#240000
b11111111101111011101100 !
b1111011101100 +
b1111011101100 .
b11111111101111011101100 "
b11111111101111011101100 &
b11111111111111111011101011 #
b111111111011111011101101 %
b11100000000001111011101010 $
#250000
b11111111101111011101101 !
b1111011101101 +
b1111011101101 .
b11111111101111011101101 "
b11111111101111011101101 &
b11111111111111111011101100 #
b111111111011111011101110 %
b11100000000001111011101011 $
#260000
b11111111101111011101110 !
b1111011101110 +
b1111011101110 .
b11111111101111011101110 "
b11111111101111011101110 &
b11111111111111111011101101 #
b111111111011111011101111 %
b11100000000001111011101100 $
#270000
b11111111101111011101111 !
b1111011101111 +
b1111011101111 .
b11111111101111011101111 "
b11111111101111011101111 &
b11111111111111111011101110 #
b111111111011111011110000 %
b11100000000001111011101101 $
#280000
b11111111101111011110000 !
b1111011110000 +
b1111011110000 .
b11111111101111011110000 "
b11111111101111011110000 &
b11111111111111111011101111 #
b111111111011111011110001 %
b11100000000001111011101110 $
#290000
b11111111101111011110001 !
b1111011110001 +
b1111011110001 .
b11111111101111011110001 "
b11111111101111011110001 &
b11111111111111111011110000 #
b111111111011111011110010 %
b11100000000001111011101111 $
#300000
b11111111101111011110010 !
b1111011110010 +
b1111011110010 .
b11111111101111011110010 "
b11111111101111011110010 &
b11111111111111111011110001 #
b111111111011111011110011 %
b11100000000001111011110000 $
#310000
b11111111101111011110011 !
b1111011110011 +
b1111011110011 .
b11111111101111011110011 "
b11111111101111011110011 &
b11111111111111111011110010 #
b111111111011111011110100 %
b11100000000001111011110001 $
#320000
b11111111101111011110100 !
b1111011110100 +
b1111011110100 .
b11111111101111011110100 "
b11111111101111011110100 &
b11111111111111111011110011 #
b111111111011111011110101 %
b11100000000001111011110010 $
#330000
b11111111101111011110101 !
b1111011110101 +
b1111011110101 .
b11111111101111011110101 "
b11111111101111011110101 &
b11111111111111111011110100 #
b111111111011111011110110 %
b11100000000001111011110011 $
#340000
b11111111101111011110110 !
b1111011110110 +
b1111011110110 .
b11111111101111011110110 "
b11111111101111011110110 &
b11111111111111111011110101 #
b111111111011111011110111 %
b11100000000001111011110100 $
#350000
b11111111101111011110111 !
b1111011110111 +
b1111011110111 .
b11111111101111011110111 "
b11111111101111011110111 &
b11111111111111111011110110 #
b111111111011111011111000 %
b11100000000001111011110101 $
#360000
b11111111101111011111000 !
b1111011111000 +
b1111011111000 .
b11111111101111011111000 "
b11111111101111011111000 &
b11111111111111111011110111 #
b111111111011111011111001 %
b11100000000001111011110110 $
#370000
b11111111101111011111001 !
b1111011111001 +
b1111011111001 .
b11111111101111011111001 "
b11111111101111011111001 &
b11111111111111111011111000 #
b111111111011111011111010 %
b11100000000001111011110111 $
#380000
b11111111101111011111010 !
b1111011111010 +
b1111011111010 .
b11111111101111011111010 "
b11111111101111011111010 &
b11111111111111111011111001 #
b111111111011111011111011 %
b11100000000001111011111000 $
#390000
b11111111101111011111011 !
b1111011111011 +
b1111011111011 .
b11111111101111011111011 "
b11111111101111011111011 &
b11111111111111111011111010 #
b111111111011111011111100 %
b11100000000001111011111001 $
#400000
b11111111101111011111100 !
b1111011111100 +
b1111011111100 .
b11111111101111011111100 "
b11111111101111011111100 &
b11111111111111111011111011 #
b111111111011111011111101 %
b11100000000001111011111010 $
#410000
b11111111101111011111101 !
b1111011111101 +
b1111011111101 .
b11111111101111011111101 "
b11111111101111011111101 &
b11111111111111111011111100 #
b111111111011111011111110 %
b11100000000001111011111011 $
#420000
b11111111101111011111110 !
b1111011111110 +
b1111011111110 .
b11111111101111011111110 "
b11111111101111011111110 &
b11111111111111111011111101 #
b111111111011111011111111 %
b11100000000001111011111100 $
#430000
b11111111101111011111111 !
b1111011111111 +
b1111011111111 .
b11111111101111011111111 "
b11111111101111011111111 &
b11111111111111111011111110 #
b111111111011111100000000 %
b11100000000001111011111101 $
#440000
b11111111101111100000000 !
b1111100000000 +
b1111100000000 .
b11111111101111100000000 "
b11111111101111100000000 &
b11111111111111111011111111 #
b111111111011111100000001 %
b11100000000001111011111110 $
#450000
b11111111101111100000001 !
b1111100000001 +
b1111100000001 .
b11111111101111100000001 "
b11111111101111100000001 &
b11111111111111111100000000 #
b111111111011111100000010 %
b11100000000001111011111111 $
#460000
b11111111101111100000010 !
b1111100000010 +
b1111100000010 .
b11111111101111100000010 "
b11111111101111100000010 &
b11111111111111111100000001 #
b111111111011111100000011 %
b11100000000001111100000000 $
#470000
b11111111101111100000011 !
b1111100000011 +
b1111100000011 .
b11111111101111100000011 "
b11111111101111100000011 &
b11111111111111111100000010 #
b111111111011111100000100 %
b11100000000001111100000001 $
#480000
b11111111101111100000100 !
b1111100000100 +
b1111100000100 .
b11111111101111100000100 "
b11111111101111100000100 &
b11111111111111111100000011 #
b111111111011111100000101 %
b11100000000001111100000010 $
#490000
b11111111101111100000101 !
b1111100000101 +
b1111100000101 .
b11111111101111100000101 "
b11111111101111100000101 &
b11111111111111111100000100 #
b111111111011111100000110 %
b11100000000001111100000011 $
#500000
b11111111101111100000110 !
b1111100000110 +
b1111100000110 .
b11111111101111100000110 "
b11111111101111100000110 &
b11111111111111111100000101 #
b111111111011111100000111 %
b11100000000001111100000100 $
#510000
b11111111101111100000111 !
b1111100000111 +
b1111100000111 .
b11111111101111100000111 "
b11111111101111100000111 &
b11111111111111111100000110 #
b111111111011111100001000 %
b11100000000001111100000101 $
#520000
b11111111101111100001000 !
b1111100001000 +
b1111100001000 .
b11111111101111100001000 "
b11111111101111100001000 &
b11111111111111111100000111 #
b111111111011111100001001 %
b11100000000001111100000110 $
#530000
b11111111101111100001001 !
b1111100001001 +
b1111100001001 .
b11111111101111100001001 "
b11111111101111100001001 &
b11111111111111111100001000 #
b111111111011111100001010 %
b11100000000001111100000111 $
#540000
b11111111101111100001010 !
b1111100001010 +
b1111100001010 .
b11111111101111100001010 "
b11111111101111100001010 &
b11111111111111111100001001 #
b111111111011111100001011 %
b11100000000001111100001000 $
#550000
b11111111101111100001011 !
b1111100001011 +
b1111100001011 .
b11111111101111100001011 "
b11111111101111100001011 &
b11111111111111111100001010 #
b111111111011111100001100 %
b11100000000001111100001001 $
#560000
b11111111101111100001100 !
b1111100001100 +
b1111100001100 .
b11111111101111100001100 "
b11111111101111100001100 &
b11111111111111111100001011 #
b111111111011111100001101 %
b11100000000001111100001010 $
#570000
b11111111101111100001101 !
b1111100001101 +
b1111100001101 .
b11111111101111100001101 "
b11111111101111100001101 &
b11111111111111111100001100 #
b111111111011111100001110 %
b11100000000001111100001011 $
#580000
b11111111101111100001110 !
b1111100001110 +
b1111100001110 .
b11111111101111100001110 "
b11111111101111100001110 &
b11111111111111111100001101 #
b111111111011111100001111 %
b11100000000001111100001100 $
#590000
b11111111101111100001111 !
b1111100001111 +
b1111100001111 .
b11111111101111100001111 "
b11111111101111100001111 &
b11111111111111111100001110 #
b111111111011111100010000 %
b11100000000001111100001101 $
#600000
b11111111101111100010000 !
b1111100010000 +
b1111100010000 .
b11111111101111100010000 "
b11111111101111100010000 &
b11111111111111111100001111 #
b111111111011111100010001 %
b11100000000001111100001110 $
#610000
b11111111101111100010001 !
b1111100010001 +
b1111100010001 .
b11111111101111100010001 "
b11111111101111100010001 &
b11111111111111111100010000 #
b111111111011111100010010 %
b11100000000001111100001111 $
#620000
b11111111101111100010010 !
b1111100010010 +
b1111100010010 .
b11111111101111100010010 "
b11111111101111100010010 &
b11111111111111111100010001 #
b111111111011111100010011 %
b11100000000001111100010000 $
#630000
b11111111101111100010011 !
b1111100010011 +
b1111100010011 .
b11111111101111100010011 "
b11111111101111100010011 &
b11111111111111111100010010 #
b111111111011111100010100 %
b11100000000001111100010001 $
#640000
b11111111101111100010100 !
b1111100010100 +
b1111100010100 .
b11111111101111100010100 "
b11111111101111100010100 &
b11111111111111111100010011 #
b111111111011111100010101 %
b11100000000001111100010010 $
#650000
b11111111101111100010101 !
b1111100010101 +
b1111100010101 .
b11111111101111100010101 "
b11111111101111100010101 &
b11111111111111111100010100 #
b111111111011111100010110 %
b11100000000001111100010011 $
#660000
b11111111101111100010110 !
b1111100010110 +
b1111100010110 .
b11111111101111100010110 "
b11111111101111100010110 &
b11111111111111111100010101 #
b111111111011111100010111 %
b11100000000001111100010100 $
#670000
b11111111101111100010111 !
b1111100010111 +
b1111100010111 .
b11111111101111100010111 "
b11111111101111100010111 &
b11111111111111111100010110 #
b111111111011111100011000 %
b11100000000001111100010101 $
#680000
b11111111101111100011000 !
b1111100011000 +
b1111100011000 .
b11111111101111100011000 "
b11111111101111100011000 &
b11111111111111111100010111 #
b111111111011111100011001 %
b11100000000001111100010110 $
#690000
b11111111101111100011001 !
b1111100011001 +
b1111100011001 .
b11111111101111100011001 "
b11111111101111100011001 &
b11111111111111111100011000 #
b111111111011111100011010 %
b11100000000001111100010111 $
#700000
b11111111101111100011010 !
b1111100011010 +
b1111100011010 .
b11111111101111100011010 "
b11111111101111100011010 &
b11111111111111111100011001 #
b111111111011111100011011 %
b11100000000001111100011000 $
#710000
b11111111101111100011011 !
b1111100011011 +
b1111100011011 .
b11111111101111100011011 "
b11111111101111100011011 &
b11111111111111111100011010 #
b111111111011111100011100 %
b11100000000001111100011001 $
#720000
b11111111101111100011100 !
b1111100011100 +
b1111100011100 .
b11111111101111100011100 "
b11111111101111100011100 &
b11111111111111111100011011 #
b111111111011111100011101 %
b11100000000001111100011010 $
#730000
b11111111101111100011101 !
b1111100011101 +
b1111100011101 .
b11111111101111100011101 "
b11111111101111100011101 &
b11111111111111111100011100 #
b111111111011111100011110 %
b11100000000001111100011011 $
#740000
b11111111101111100011110 !
b1111100011110 +
b1111100011110 .
b11111111101111100011110 "
b11111111101111100011110 &
b11111111111111111100011101 #
b111111111011111100011111 %
b11100000000001111100011100 $
#750000
b11111111101111100011111 !
b1111100011111 +
b1111100011111 .
b11111111101111100011111 "
b11111111101111100011111 &
b11111111111111111100011110 #
b111111111011111100100000 %
b11100000000001111100011101 $
#760000
b11111111101111100100000 !
b1111100100000 +
b1111100100000 .
b11111111101111100100000 "
b11111111101111100100000 &
b11111111111111111100011111 #
b111111111011111100100001 %
b11100000000001111100011110 $
#770000
b11111111101111100100001 !
b1111100100001 +
b1111100100001 .
b11111111101111100100001 "
b11111111101111100100001 &
b11111111111111111100100000 #
b111111111011111100100010 %
b11100000000001111100011111 $
#780000
b11111111101111100100010 !
b1111100100010 +
b1111100100010 .
b11111111101111100100010 "
b11111111101111100100010 &
b11111111111111111100100001 #
b111111111011111100100011 %
b11100000000001111100100000 $
#790000
b11111111101111100100011 !
b1111100100011 +
b1111100100011 .
b11111111101111100100011 "
b11111111101111100100011 &
b11111111111111111100100010 #
b111111111011111100100100 %
b11100000000001111100100001 $
#800000
b11111111101111100100100 !
b1111100100100 +
b1111100100100 .
b11111111101111100100100 "
b11111111101111100100100 &
b11111111111111111100100011 #
b111111111011111100100101 %
b11100000000001111100100010 $
#810000
b11111111101111100100101 !
b1111100100101 +
b1111100100101 .
b11111111101111100100101 "
b11111111101111100100101 &
b11111111111111111100100100 #
b111111111011111100100110 %
b11100000000001111100100011 $
#820000
b11111111101111100100110 !
b1111100100110 +
b1111100100110 .
b11111111101111100100110 "
b11111111101111100100110 &
b11111111111111111100100101 #
b111111111011111100100111 %
b11100000000001111100100100 $
#830000
b11111111101111100100111 !
b1111100100111 +
b1111100100111 .
b11111111101111100100111 "
b11111111101111100100111 &
b11111111111111111100100110 #
b111111111011111100101000 %
b11100000000001111100100101 $
#840000
b11111111101111100101000 !
b1111100101000 +
b1111100101000 .
b11111111101111100101000 "
b11111111101111100101000 &
b11111111111111111100100111 #
b111111111011111100101001 %
b11100000000001111100100110 $
#850000
b11111111101111100101001 !
b1111100101001 +
b1111100101001 .
b11111111101111100101001 "
b11111111101111100101001 &
b11111111111111111100101000 #
b111111111011111100101010 %
b11100000000001111100100111 $
#860000
b11111111101111100101010 !
b1111100101010 +
b1111100101010 .
b11111111101111100101010 "
b11111111101111100101010 &
b11111111111111111100101001 #
b111111111011111100101011 %
b11100000000001111100101000 $
#870000
b11111111101111100101011 !
b1111100101011 +
b1111100101011 .
b11111111101111100101011 "
b11111111101111100101011 &
b11111111111111111100101010 #
b111111111011111100101100 %
b11100000000001111100101001 $
#880000
b11111111101111100101100 !
b1111100101100 +
b1111100101100 .
b11111111101111100101100 "
b11111111101111100101100 &
b11111111111111111100101011 #
b111111111011111100101101 %
b11100000000001111100101010 $
#890000
b11111111101111100101101 !
b1111100101101 +
b1111100101101 .
b11111111101111100101101 "
b11111111101111100101101 &
b11111111111111111100101100 #
b111111111011111100101110 %
b11100000000001111100101011 $
#900000
b11111111101111100101110 !
b1111100101110 +
b1111100101110 .
b11111111101111100101110 "
b11111111101111100101110 &
b11111111111111111100101101 #
b111111111011111100101111 %
b11100000000001111100101100 $
#910000
b11111111101111100101111 !
b1111100101111 +
b1111100101111 .
b11111111101111100101111 "
b11111111101111100101111 &
b11111111111111111100101110 #
b111111111011111100110000 %
b11100000000001111100101101 $
#920000
b11111111101111100110000 !
b1111100110000 +
b1111100110000 .
b11111111101111100110000 "
b11111111101111100110000 &
b11111111111111111100101111 #
b111111111011111100110001 %
b11100000000001111100101110 $
#930000
b11111111101111100110001 !
b1111100110001 +
b1111100110001 .
b11111111101111100110001 "
b11111111101111100110001 &
b11111111111111111100110000 #
b111111111011111100110010 %
b11100000000001111100101111 $
#940000
b11111111101111100110010 !
b1111100110010 +
b1111100110010 .
b11111111101111100110010 "
b11111111101111100110010 &
b11111111111111111100110001 #
b111111111011111100110011 %
b11100000000001111100110000 $
#950000
b11111111101111100110011 !
b1111100110011 +
b1111100110011 .
b11111111101111100110011 "
b11111111101111100110011 &
b11111111111111111100110010 #
b111111111011111100110100 %
b11100000000001111100110001 $
#960000
b11111111101111100110100 !
b1111100110100 +
b1111100110100 .
b11111111101111100110100 "
b11111111101111100110100 &
b11111111111111111100110011 #
b111111111011111100110101 %
b11100000000001111100110010 $
#970000
b11111111101111100110101 !
b1111100110101 +
b1111100110101 .
b11111111101111100110101 "
b11111111101111100110101 &
b11111111111111111100110100 #
b111111111011111100110110 %
b11100000000001111100110011 $
#980000
b11111111101111100110110 !
b1111100110110 +
b1111100110110 .
b11111111101111100110110 "
b11111111101111100110110 &
b11111111111111111100110101 #
b111111111011111100110111 %
b11100000000001111100110100 $
#990000
b11111111101111100110111 !
b1111100110111 +
b1111100110111 .
b11111111101111100110111 "
b11111111101111100110111 &
b11111111111111111100110110 #
b111111111011111100111000 %
b11100000000001111100110101 $
#1000000
b11111111101111100111000 !
b1111100111000 +
b1111100111000 .
b11111111101111100111000 "
b11111111101111100111000 &
b11111111111111111100110111 #
b111111111011111100111001 %
b11100000000001111100110110 $
#1010000
b11111111101111100111001 !
b1111100111001 +
b1111100111001 .
b11111111101111100111001 "
b11111111101111100111001 &
b11111111111111111100111000 #
b111111111011111100111010 %
b11100000000001111100110111 $
#1020000
b11111111101111100111010 !
b1111100111010 +
b1111100111010 .
b11111111101111100111010 "
b11111111101111100111010 &
b11111111111111111100111001 #
b111111111011111100111011 %
b11100000000001111100111000 $
#1030000
b11111111101111100111011 !
b1111100111011 +
b1111100111011 .
b11111111101111100111011 "
b11111111101111100111011 &
b11111111111111111100111010 #
b111111111011111100111100 %
b11100000000001111100111001 $
#1040000
b11111111101111100111100 !
b1111100111100 +
b1111100111100 .
b11111111101111100111100 "
b11111111101111100111100 &
b11111111111111111100111011 #
b111111111011111100111101 %
b11100000000001111100111010 $
#1050000
b11111111101111100111101 !
b1111100111101 +
b1111100111101 .
b11111111101111100111101 "
b11111111101111100111101 &
b11111111111111111100111100 #
b111111111011111100111110 %
b11100000000001111100111011 $
#1060000
b11111111101111100111110 !
b1111100111110 +
b1111100111110 .
b11111111101111100111110 "
b11111111101111100111110 &
b11111111111111111100111101 #
b111111111011111100111111 %
b11100000000001111100111100 $
#1070000
b11111111101111100111111 !
b1111100111111 +
b1111100111111 .
b11111111101111100111111 "
b11111111101111100111111 &
b11111111111111111100111110 #
b111111111011111101000000 %
b11100000000001111100111101 $
#1080000
b11111111101111101000000 !
b1111101000000 +
b1111101000000 .
b11111111101111101000000 "
b11111111101111101000000 &
b11111111111111111100111111 #
b111111111011111101000001 %
b11100000000001111100111110 $
#1090000
b11111111101111101000001 !
b1111101000001 +
b1111101000001 .
b11111111101111101000001 "
b11111111101111101000001 &
b11111111111111111101000000 #
b111111111011111101000010 %
b11100000000001111100111111 $
#1100000
b11111111101111101000010 !
b1111101000010 +
b1111101000010 .
b11111111101111101000010 "
b11111111101111101000010 &
b11111111111111111101000001 #
b111111111011111101000011 %
b11100000000001111101000000 $
#1110000
b11111111101111101000011 !
b1111101000011 +
b1111101000011 .
b11111111101111101000011 "
b11111111101111101000011 &
b11111111111111111101000010 #
b111111111011111101000100 %
b11100000000001111101000001 $
#1120000
b11111111101111101000100 !
b1111101000100 +
b1111101000100 .
b11111111101111101000100 "
b11111111101111101000100 &
b11111111111111111101000011 #
b111111111011111101000101 %
b11100000000001111101000010 $
#1130000
b11111111101111101000101 !
b1111101000101 +
b1111101000101 .
b11111111101111101000101 "
b11111111101111101000101 &
b11111111111111111101000100 #
b111111111011111101000110 %
b11100000000001111101000011 $
#1140000
b11111111101111101000110 !
b1111101000110 +
b1111101000110 .
b11111111101111101000110 "
b11111111101111101000110 &
b11111111111111111101000101 #
b111111111011111101000111 %
b11100000000001111101000100 $
#1150000
b11111111101111101000111 !
b1111101000111 +
b1111101000111 .
b11111111101111101000111 "
b11111111101111101000111 &
b11111111111111111101000110 #
b111111111011111101001000 %
b11100000000001111101000101 $
#1160000
b11111111101111101001000 !
b1111101001000 +
b1111101001000 .
b11111111101111101001000 "
b11111111101111101001000 &
b11111111111111111101000111 #
b111111111011111101001001 %
b11100000000001111101000110 $
#1170000
b11111111101111101001001 !
b1111101001001 +
b1111101001001 .
b11111111101111101001001 "
b11111111101111101001001 &
b11111111111111111101001000 #
b111111111011111101001010 %
b11100000000001111101000111 $
#1180000
b11111111101111101001010 !
b1111101001010 +
b1111101001010 .
b11111111101111101001010 "
b11111111101111101001010 &
b11111111111111111101001001 #
b111111111011111101001011 %
b11100000000001111101001000 $
#1190000
b11111111101111101001011 !
b1111101001011 +
b1111101001011 .
b11111111101111101001011 "
b11111111101111101001011 &
b11111111111111111101001010 #
b111111111011111101001100 %
b11100000000001111101001001 $
#1200000
b11111111101111101001100 !
b1111101001100 +
b1111101001100 .
b11111111101111101001100 "
b11111111101111101001100 &
b11111111111111111101001011 #
b111111111011111101001101 %
b11100000000001111101001010 $
#1210000
b11111111101111101001101 !
b1111101001101 +
b1111101001101 .
b11111111101111101001101 "
b11111111101111101001101 &
b11111111111111111101001100 #
b111111111011111101001110 %
b11100000000001111101001011 $
#1220000
b11111111101111101001110 !
b1111101001110 +
b1111101001110 .
b11111111101111101001110 "
b11111111101111101001110 &
b11111111111111111101001101 #
b111111111011111101001111 %
b11100000000001111101001100 $
#1230000
b11111111101111101001111 !
b1111101001111 +
b1111101001111 .
b11111111101111101001111 "
b11111111101111101001111 &
b11111111111111111101001110 #
b111111111011111101010000 %
b11100000000001111101001101 $
#1240000
b11111111101111101010000 !
b1111101010000 +
b1111101010000 .
b11111111101111101010000 "
b11111111101111101010000 &
b11111111111111111101001111 #
b111111111011111101010001 %
b11100000000001111101001110 $
#1250000
b11111111101111101010001 !
b1111101010001 +
b1111101010001 .
b11111111101111101010001 "
b11111111101111101010001 &
b11111111111111111101010000 #
b111111111011111101010010 %
b11100000000001111101001111 $
#1260000
b11111111101111101010010 !
b1111101010010 +
b1111101010010 .
b11111111101111101010010 "
b11111111101111101010010 &
b11111111111111111101010001 #
b111111111011111101010011 %
b11100000000001111101010000 $
#1270000
b11111111101111101010011 !
b1111101010011 +
b1111101010011 .
b11111111101111101010011 "
b11111111101111101010011 &
b11111111111111111101010010 #
b111111111011111101010100 %
b11100000000001111101010001 $
#1280000
b11111111101111101010100 !
b1111101010100 +
b1111101010100 .
b11111111101111101010100 "
b11111111101111101010100 &
b11111111111111111101010011 #
b111111111011111101010101 %
b11100000000001111101010010 $
#1290000
b11111111101111101010101 !
b1111101010101 +
b1111101010101 .
b11111111101111101010101 "
b11111111101111101010101 &
b11111111111111111101010100 #
b111111111011111101010110 %
b11100000000001111101010011 $
#1300000
b11111111101111101010110 !
b1111101010110 +
b1111101010110 .
b11111111101111101010110 "
b11111111101111101010110 &
b11111111111111111101010101 #
b111111111011111101010111 %
b11100000000001111101010100 $
#1310000
b11111111101111101010111 !
b1111101010111 +
b1111101010111 .
b11111111101111101010111 "
b11111111101111101010111 &
b11111111111111111101010110 #
b111111111011111101011000 %
b11100000000001111101010101 $
#1320000
b11111111101111101011000 !
b1111101011000 +
b1111101011000 .
b11111111101111101011000 "
b11111111101111101011000 &
b11111111111111111101010111 #
b111111111011111101011001 %
b11100000000001111101010110 $
#1330000
b11111111101111101011001 !
b1111101011001 +
b1111101011001 .
b11111111101111101011001 "
b11111111101111101011001 &
b11111111111111111101011000 #
b111111111011111101011010 %
b11100000000001111101010111 $
#1340000
b11111111101111101011010 !
b1111101011010 +
b1111101011010 .
b11111111101111101011010 "
b11111111101111101011010 &
b11111111111111111101011001 #
b111111111011111101011011 %
b11100000000001111101011000 $
#1350000
b11111111101111101011011 !
b1111101011011 +
b1111101011011 .
b11111111101111101011011 "
b11111111101111101011011 &
b11111111111111111101011010 #
b111111111011111101011100 %
b11100000000001111101011001 $
#1360000
b11111111101111101011100 !
b1111101011100 +
b1111101011100 .
b11111111101111101011100 "
b11111111101111101011100 &
b11111111111111111101011011 #
b111111111011111101011101 %
b11100000000001111101011010 $
#1370000
b11111111101111101011101 !
b1111101011101 +
b1111101011101 .
b11111111101111101011101 "
b11111111101111101011101 &
b11111111111111111101011100 #
b111111111011111101011110 %
b11100000000001111101011011 $
#1380000
b11111111101111101011110 !
b1111101011110 +
b1111101011110 .
b11111111101111101011110 "
b11111111101111101011110 &
b11111111111111111101011101 #
b111111111011111101011111 %
b11100000000001111101011100 $
#1390000
b11111111101111101011111 !
b1111101011111 +
b1111101011111 .
b11111111101111101011111 "
b11111111101111101011111 &
b11111111111111111101011110 #
b111111111011111101100000 %
b11100000000001111101011101 $
#1400000
b11111111101111101100000 !
b1111101100000 +
b1111101100000 .
b11111111101111101100000 "
b11111111101111101100000 &
b11111111111111111101011111 #
b111111111011111101100001 %
b11100000000001111101011110 $
#1410000
b11111111101111101100001 !
b1111101100001 +
b1111101100001 .
b11111111101111101100001 "
b11111111101111101100001 &
b11111111111111111101100000 #
b111111111011111101100010 %
b11100000000001111101011111 $
#1420000
b11111111101111101100010 !
b1111101100010 +
b1111101100010 .
b11111111101111101100010 "
b11111111101111101100010 &
b11111111111111111101100001 #
b111111111011111101100011 %
b11100000000001111101100000 $
#1430000
b11111111101111101100011 !
b1111101100011 +
b1111101100011 .
b11111111101111101100011 "
b11111111101111101100011 &
b11111111111111111101100010 #
b111111111011111101100100 %
b11100000000001111101100001 $
#1440000
b11111111101111101100100 !
b1111101100100 +
b1111101100100 .
b11111111101111101100100 "
b11111111101111101100100 &
b11111111111111111101100011 #
b111111111011111101100101 %
b11100000000001111101100010 $
#1450000
b11111111101111101100101 !
b1111101100101 +
b1111101100101 .
b11111111101111101100101 "
b11111111101111101100101 &
b11111111111111111101100100 #
b111111111011111101100110 %
b11100000000001111101100011 $
#1460000
b11111111101111101100110 !
b1111101100110 +
b1111101100110 .
b11111111101111101100110 "
b11111111101111101100110 &
b11111111111111111101100101 #
b111111111011111101100111 %
b11100000000001111101100100 $
